xl = []
yl = []
for i in range(10):
    xl.append(input('Введите X' + '(' + str(i + 1) + ') - '))
    yl.append(input('Введите Y' + '(' + str(i + 1) + ') - '))

print(xl)


my_file = open("XY1.txt", "w+")

for i in range(10):
    my_file.write(xl[i])
    my_file.write(' ')

my_file.write('\n')

for i in range(10):
    my_file.write(yl[i])
    my_file.write(' ')

my_file.close()
